{
    "id": "PolishCore",
    "title": "Polska wersja [Core]",
    "description": "Polska wersja językowa aplikacji Foundry VTT",
    "version": "2.3.2",
    "compatibility": 
    {
        "minimum": "11",
        "verified": "11"
    },
    "author": "Damian, Jakub",
    "coreTranslation": true,
    "languages": [
        {
            "lang": "pl",
            "name": "Polski",
            "path": "pl.json"
        }
    ],
    "url": "https://gitlab.com/fvtt-poland/core",
    "manifest": "https://gitlab.com/fvtt-poland/core/-/raw/main/pl-PL/module.json",
    "download": "https://gitlab.com/fvtt-poland/core/-/jobs/artifacts/v2.3.2/raw/pl-PL.zip?job=build"
}
